{
  "file_generated_by": "FlutterFire CLI",
  "purpose": "FirebaseAppID & ProjectID for this Firebase app in this directory",
  "GOOGLE_APP_ID": "1:389657959180:ios:9f2bce5d4f40deb38c8729",
  "FIREBASE_PROJECT_ID": "transaction-list-a7fef",
  "GCM_SENDER_ID": "389657959180"
}